<?xml version="1.0" encoding="UTF-8"?>
<svg width="134px" height="116px" viewBox="0 0 134 116" version="1.1" xmlns="http://www.w3.org/2000/svg" xmlns:xlink="http://www.w3.org/1999/xlink">
    <!-- Generator: Sketch 52.2 (67145) - http://www.bohemiancoding.com/sketch -->
    <title>Group 22</title>
    <desc>Created with Sketch.</desc>
    <g id="/company" stroke="none" stroke-width="1" fill="none" fill-rule="evenodd">
        <g id="company-page-v1" transform="translate(-393.000000, -3861.000000)">
            <g id="Group-22" transform="translate(395.000000, 3861.000000)">
                <polygon id="Fill-1" fill="#FCA326" points="61.2626327 95.7114837 41.0754898 89.1578093 65.6706939 13.5148326 85.8578367 20.0698326"></polygon>
                <polygon id="Stroke-2" stroke="#333333" stroke-width="2.65306122" stroke-linecap="round" stroke-linejoin="round" points="61.2626327 95.7114837 41.0754898 89.1578093 65.6706939 13.5148326 85.8578367 20.0698326"></polygon>
                <polygon id="Fill-3" fill="#CCCCCC" points="44.200398 113.865719 41.0777449 89.1568814 61.2595816 95.7105558"></polygon>
                <polygon id="Stroke-4" stroke="#333333" stroke-width="2.65306122" stroke-linecap="round" stroke-linejoin="round" points="44.200398 113.865719 41.0777449 89.1568814 61.2595816 95.7105558"></polygon>
                <polygon id="Fill-6" fill="#333333" points="44.7211939 113.719507 42.5430306 103.256693 51.3750714 106.125251"></polygon>
                <g id="Group-21" transform="translate(0.000000, 1.191698)">
                    <path d="M85.8578367,18.8774721 L65.6706939,12.3237977 L68.8052857,3.4158907 C69.7577347,0.686518605 73.2690612,-0.593993023 76.6477347,0.556611628 L84.2925306,3.15872791 C87.6698776,4.30800698 89.6371224,7.45361163 88.6833469,10.1829837 L85.8578367,18.8774721 Z" id="Fill-7" fill="#E24329"></path>
                    <path d="M85.8578367,18.8774721 L65.6706939,12.3237977 L68.8052857,3.4158907 C69.7577347,0.686518605 73.2690612,-0.593993023 76.6477347,0.556611628 L84.2925306,3.15872791 C87.6698776,4.30800698 89.6371224,7.45361163 88.6833469,10.1829837 L85.8578367,18.8774721 Z" id="Stroke-9" stroke="#333333" stroke-width="2.65306122" stroke-linecap="round" stroke-linejoin="round"></path>
                    <path d="M72.4850816,25.685393 L54.450898,81.1490442" id="Stroke-11" stroke="#333333" stroke-width="2.65306122" stroke-linecap="round" stroke-linejoin="round"></path>
                    <path d="M22.1895408,32.0336023 L3.4297449,50.7813 L1.55403061,52.6556721 C-0.518010204,54.7249047 -0.518010204,58.0826023 1.55403061,60.1531605 L3.4297449,62.0275326 L22.1895408,80.7752302 C24.2615816,82.8457884 27.6216837,82.8457884 29.6937245,80.7752302 C31.7670918,78.7033465 31.7670918,75.3469744 29.6937245,73.2750907 L12.8109694,56.4044163 L29.6937245,39.5324163 C31.7670918,37.4618581 31.7670918,34.1041605 29.6937245,32.0336023 C27.6216837,29.9630442 24.2615816,29.9630442 22.1895408,32.0336023" id="Fill-13" fill="#FFFFFF"></path>
                    <path d="M22.1895408,32.0336023 L3.4297449,50.7813 L1.55403061,52.6556721 C-0.518010204,54.7249047 -0.518010204,58.0826023 1.55403061,60.1531605 L3.4297449,62.0275326 L22.1895408,80.7752302 C24.2615816,82.8457884 27.6216837,82.8457884 29.6937245,80.7752302 C31.7670918,78.7033465 31.7670918,75.3469744 29.6937245,73.2750907 L12.8109694,56.4044163 L29.6937245,39.5324163 C31.7670918,37.4618581 31.7670918,34.1041605 29.6937245,32.0336023 C27.6216837,29.9630442 24.2615816,29.9630442 22.1895408,32.0336023 Z" id="Stroke-15" stroke="#333333" stroke-width="2.65306122" stroke-linecap="round" stroke-linejoin="round"></path>
                    <path d="M107.810459,80.7747 L126.570255,62.0270023 L128.445969,60.1526302 C130.51801,58.0833977 130.51801,54.7257 128.445969,52.6551419 L126.570255,50.7807698 L107.810459,32.0330721 C105.738418,29.962514 102.378316,29.962514 100.306276,32.0330721 C98.2329082,34.1049558 98.2329082,37.4613279 100.306276,39.5332116 L117.189031,56.403886 L100.306276,73.275886 C98.2329082,75.3464442 98.2329082,78.7041419 100.306276,80.7747 C102.378316,82.8452581 105.738418,82.8452581 107.810459,80.7747" id="Fill-17" fill="#FFFFFF"></path>
                    <path d="M107.810459,80.7747 L126.570255,62.0270023 L128.445969,60.1526302 C130.51801,58.0833977 130.51801,54.7257 128.445969,52.6551419 L126.570255,50.7807698 L107.810459,32.0330721 C105.738418,29.962514 102.378316,29.962514 100.306276,32.0330721 C98.2329082,34.1049558 98.2329082,37.4613279 100.306276,39.5332116 L117.189031,56.403886 L100.306276,73.275886 C98.2329082,75.3464442 98.2329082,78.7041419 100.306276,80.7747 C102.378316,82.8452581 105.738418,82.8452581 107.810459,80.7747 Z" id="Stroke-19" stroke="#333333" stroke-width="2.65306122" stroke-linecap="round" stroke-linejoin="round"></path>
                </g>
            </g>
        </g>
    </g>
</svg>