<?xml version="1.0" encoding="UTF-8"?>
<svg width="100px" height="92px" viewBox="0 0 100 92" version="1.1" xmlns="http://www.w3.org/2000/svg" xmlns:xlink="http://www.w3.org/1999/xlink">
    <!-- Generator: Sketch 52.3 (67297) - http://www.bohemiancoding.com/sketch -->
    <title>evaluation-icon</title>
    <desc>Created with Sketch.</desc>
    <defs>
        <polygon id="path-1" points="0 92 100 92 100 0 0 0"></polygon>
    </defs>
    <g id="Page-1" stroke="none" stroke-width="1" fill="none" fill-rule="evenodd">
        <g id="GitLab-First-Look" transform="translate(-242.000000, -2177.000000)">
            <g id="evaluation-icon" transform="translate(242.000000, 2177.000000)">
                <path d="M93,71 L7,71 C3.687,71 1,68.313 1,65 L1,7 C1,3.687 3.687,1 7,1 L93,1 C96.313,1 99,3.687 99,7 L99,65 C99,68.313 96.313,71 93,71" id="Fill-1" fill="#FCF2EB"></path>
                <path d="M93,71 L7,71 C3.687,71 1,68.313 1,65 L1,7 C1,3.687 3.687,1 7,1 L93,1 C96.313,1 99,3.687 99,7 L99,65 C99,68.313 96.313,71 93,71 Z" id="Stroke-3" stroke="#333333" stroke-width="2" stroke-linecap="round" stroke-linejoin="round"></path>
                <path d="M93,71 L7,71 C3.687,71 1,68.313 1,65 L1,57 L99,57 L99,65 C99,68.313 96.313,71 93,71" id="Fill-5" fill="#CCCCCC"></path>
                <path d="M93,71 L7,71 C3.687,71 1,68.313 1,65 L1,57 L99,57 L99,65 C99,68.313 96.313,71 93,71 Z" id="Stroke-7" stroke="#333333" stroke-width="2" stroke-linecap="round" stroke-linejoin="round"></path>
                <mask id="mask-2" fill="white">
                    <use xlink:href="#path-1"></use>
                </mask>
                <g id="Clip-10"></g>
                <polygon id="Fill-9" fill="#CCCCCC" mask="url(#mask-2)" points="40 85 60 85 60 71 40 71"></polygon>
                <polygon id="Stroke-11" stroke="#333333" stroke-width="2" stroke-linecap="round" stroke-linejoin="round" mask="url(#mask-2)" points="40 85 60 85 60 71 40 71"></polygon>
                <path d="M70,91 L30,91 L30,89 C30,86.791 31.791,85 34,85 L66,85 C68.209,85 70,86.791 70,89 L70,91 Z" id="Fill-12" fill="#CCCCCC" mask="url(#mask-2)"></path>
                <path d="M70,91 L30,91 L30,89 C30,86.791 31.791,85 34,85 L66,85 C68.209,85 70,86.791 70,89 L70,91 Z" id="Stroke-13" stroke="#333333" stroke-width="2" stroke-linecap="round" stroke-linejoin="round" mask="url(#mask-2)"></path>
                <path d="M88,57 L12,57 L12,13 C12,11.896 12.896,11 14,11 L86,11 C87.104,11 88,11.896 88,13 L88,57 Z" id="Fill-14" fill="#FFFFFF" mask="url(#mask-2)"></path>
                <path d="M88,57 L12,57 L12,13 C12,11.896 12.896,11 14,11 L86,11 C87.104,11 88,11.896 88,13 L88,57 Z" id="Stroke-15" stroke="#333333" stroke-width="2" stroke-linecap="round" stroke-linejoin="round" mask="url(#mask-2)"></path>
                <path d="M44.6143,27.7764 C43.4373,26.6834 41.5963,26.7524 40.5043,27.9304 L33.0083,36.0104 L31.0093,34.2094 C29.8143,33.1344 27.9743,33.2304 26.9003,34.4224 C25.8243,35.6164 25.9203,37.4564 27.1133,38.5314 L31.2423,42.2524 C31.3193,42.3214 31.4043,42.3744 31.4863,42.4334 C31.5493,42.4794 31.6063,42.5314 31.6723,42.5714 C31.7573,42.6244 31.8473,42.6604 31.9363,42.7034 C32.0103,42.7384 32.0803,42.7814 32.1553,42.8094 C32.2573,42.8474 32.3603,42.8704 32.4643,42.8964 C32.5313,42.9144 32.5963,42.9394 32.6653,42.9524 C32.8393,42.9844 33.0133,43.0004 33.1883,43.0004 C33.3853,43.0004 33.5823,42.9794 33.7753,42.9394 C33.8463,42.9254 33.9133,42.8954 33.9823,42.8754 C34.1033,42.8414 34.2253,42.8124 34.3423,42.7614 C34.4263,42.7254 34.5033,42.6724 34.5843,42.6274 C34.6793,42.5754 34.7773,42.5304 34.8673,42.4664 C34.9503,42.4084 35.0223,42.3314 35.0993,42.2634 C35.1743,42.1984 35.2543,42.1424 35.3223,42.0694 L35.3483,42.0404 C35.3493,42.0404 35.3493,42.0394 35.3503,42.0394 C35.3503,42.0384 35.3513,42.0384 35.3513,42.0374 L44.7683,31.8874 C45.8613,30.7104 45.7933,28.8694 44.6143,27.7764" id="Fill-16" fill="#A3CC6C" mask="url(#mask-2)"></path>
                <path d="M44.6143,27.7764 C43.4373,26.6834 41.5963,26.7524 40.5043,27.9304 L33.0083,36.0104 L31.0093,34.2094 C29.8143,33.1344 27.9743,33.2304 26.9003,34.4224 C25.8243,35.6164 25.9203,37.4564 27.1133,38.5314 L31.2423,42.2524 C31.3193,42.3214 31.4043,42.3744 31.4863,42.4334 C31.5493,42.4794 31.6063,42.5314 31.6723,42.5714 C31.7573,42.6244 31.8473,42.6604 31.9363,42.7034 C32.0103,42.7384 32.0803,42.7814 32.1553,42.8094 C32.2573,42.8474 32.3603,42.8704 32.4643,42.8964 C32.5313,42.9144 32.5963,42.9394 32.6653,42.9524 C32.8393,42.9844 33.0133,43.0004 33.1883,43.0004 C33.3853,43.0004 33.5823,42.9794 33.7753,42.9394 C33.8463,42.9254 33.9133,42.8954 33.9823,42.8754 C34.1033,42.8414 34.2253,42.8124 34.3423,42.7614 C34.4263,42.7254 34.5033,42.6724 34.5843,42.6274 C34.6793,42.5754 34.7773,42.5304 34.8673,42.4664 C34.9503,42.4084 35.0223,42.3314 35.0993,42.2634 C35.1743,42.1984 35.2543,42.1424 35.3223,42.0694 L35.3483,42.0404 C35.3493,42.0404 35.3493,42.0394 35.3503,42.0394 C35.3503,42.0384 35.3513,42.0384 35.3513,42.0374 L44.7683,31.8874 C45.8613,30.7104 45.7933,28.8694 44.6143,27.7764 Z" id="Stroke-17" stroke="#333333" stroke-width="2" stroke-linecap="round" stroke-linejoin="round" mask="url(#mask-2)"></path>
                <path d="M72.918,37.5908 L69.959,34.8468 L72.704,31.8878 C73.797,30.7098 73.729,28.8688 72.55,27.7768 C71.373,26.6838 69.531,26.7518 68.439,27.9308 L65.694,30.8898 L62.736,28.1448 C61.559,27.0518 59.718,27.1188 58.625,28.2988 C57.532,29.4758 57.602,31.3168 58.779,32.4088 L61.738,35.1538 L58.992,38.1118 C57.899,39.2898 57.969,41.1308 59.147,42.2238 C59.707,42.7428 60.416,42.9998 61.124,42.9998 C61.905,42.9998 62.685,42.6878 63.258,42.0698 L66.002,39.1118 L68.961,41.8568 C69.521,42.3758 70.23,42.6328 70.939,42.6328 C71.72,42.6328 72.499,42.3198 73.072,41.7018 C74.165,40.5248 74.096,38.6838 72.918,37.5908" id="Fill-18" fill="#ED6265" mask="url(#mask-2)"></path>
                <path d="M72.918,37.5908 L69.959,34.8468 L72.704,31.8878 C73.797,30.7098 73.729,28.8688 72.55,27.7768 C71.373,26.6838 69.531,26.7518 68.439,27.9308 L65.694,30.8898 L62.736,28.1448 C61.559,27.0518 59.718,27.1188 58.625,28.2988 C57.532,29.4758 57.602,31.3168 58.779,32.4088 L61.738,35.1538 L58.992,38.1118 C57.899,39.2898 57.969,41.1308 59.147,42.2238 C59.707,42.7428 60.416,42.9998 61.124,42.9998 C61.905,42.9998 62.685,42.6878 63.258,42.0698 L66.002,39.1118 L68.961,41.8568 C69.521,42.3758 70.23,42.6328 70.939,42.6328 C71.72,42.6328 72.499,42.3198 73.072,41.7018 C74.165,40.5248 74.096,38.6838 72.918,37.5908 Z" id="Stroke-19" stroke="#333333" stroke-width="2" stroke-linecap="round" stroke-linejoin="round" mask="url(#mask-2)"></path>
            </g>
        </g>
    </g>
</svg>